<svg width="60" height="60" viewBox="0 0 60 60" fill="none" xmlns="http://www.w3.org/2000/svg">
<path d="M47.5 35V42.5C47.5 43.875 46.375 45 45 45H42.5V35H47.5ZM17.5 35V45H15C13.625 45 12.5 43.875 12.5 42.5V35H17.5ZM30 2.5C17.575 2.5 7.5 12.575 7.5 25V42.5C7.5 46.65 10.85 50 15 50H22.5V30H12.5V25C12.5 15.325 20.325 7.5 30 7.5C39.675 7.5 47.5 15.325 47.5 25V30H37.5V50H45C49.15 50 52.5 46.65 52.5 42.5V25C52.5 12.575 42.425 2.5 30 2.5Z" fill="#384351"/>
</svg>
